EESchema Schematic File Version 4
EELAYER 30 0
EELAYER END
$Descr A4 11693 8268
encoding utf-8
Sheet 1 1
Title ""
Date ""
Rev ""
Comp ""
Comment1 ""
Comment2 ""
Comment3 ""
Comment4 ""
$EndDescr
$Comp
L pspice:0 #GND03
U 1 1 5F9B159B
P 6050 4300
F 0 "#GND03" H 6050 4200 50  0001 C CNN
F 1 "0" H 6050 4389 50  0000 C CNN
F 2 "" H 6050 4300 50  0001 C CNN
F 3 "~" H 6050 4300 50  0001 C CNN
	1    6050 4300
	1    0    0    -1  
$EndComp
$Comp
L pspice:R R1
U 1 1 5F9B18CF
P 6050 3150
F 0 "R1" H 6118 3196 50  0000 L CNN
F 1 "10k" H 6118 3105 50  0000 L CNN
F 2 "" H 6050 3150 50  0001 C CNN
F 3 "~" H 6050 3150 50  0001 C CNN
	1    6050 3150
	1    0    0    -1  
$EndComp
$Comp
L pspice:R R2
U 1 1 5F9B1D5B
P 6050 3800
F 0 "R2" H 6118 3846 50  0000 L CNN
F 1 "100k" H 6118 3755 50  0000 L CNN
F 2 "" H 6050 3800 50  0001 C CNN
F 3 "~" H 6050 3800 50  0001 C CNN
	1    6050 3800
	1    0    0    -1  
$EndComp
$Comp
L pspice:C C1
U 1 1 5F9B20FB
P 5500 3800
F 0 "C1" H 5678 3846 50  0000 L CNN
F 1 "47u" H 5678 3755 50  0000 L CNN
F 2 "" H 5500 3800 50  0001 C CNN
F 3 "~" H 5500 3800 50  0001 C CNN
	1    5500 3800
	1    0    0    -1  
$EndComp
Wire Wire Line
	6050 3400 6050 3500
Wire Wire Line
	6050 4050 6050 4300
$Comp
L pspice:0 #GND02
U 1 1 5F9B6FC4
P 5500 4300
F 0 "#GND02" H 5500 4200 50  0001 C CNN
F 1 "0" H 5500 4389 50  0000 C CNN
F 2 "" H 5500 4300 50  0001 C CNN
F 3 "~" H 5500 4300 50  0001 C CNN
	1    5500 4300
	1    0    0    -1  
$EndComp
Wire Wire Line
	5500 4300 5500 4050
Wire Wire Line
	5500 3550 5500 3500
Wire Wire Line
	5500 3500 6050 3500
Connection ~ 6050 3500
Wire Wire Line
	6050 3500 6050 3550
Text GLabel 4600 3450 1    50   Input ~ 0
12v
Text GLabel 6050 2900 1    50   Input ~ 0
12v
$Comp
L pspice:0 #GND01
U 1 1 5F9B7ECB
P 4600 4300
F 0 "#GND01" H 4600 4200 50  0001 C CNN
F 1 "0" H 4600 4389 50  0000 C CNN
F 2 "" H 4600 4300 50  0001 C CNN
F 3 "~" H 4600 4300 50  0001 C CNN
	1    4600 4300
	1    0    0    -1  
$EndComp
Wire Wire Line
	4600 4300 4600 4050
Text Notes 4650 4550 0    50   ~ 0
.tran 1m 10
$Comp
L pspice:VSOURCE V1
U 1 1 5F9BD053
P 4600 3750
F 0 "V1" H 4828 3796 50  0000 L CNN
F 1 "12" H 4828 3705 50  0000 L CNN
F 2 "" H 4600 3750 50  0001 C CNN
F 3 "~" H 4600 3750 50  0001 C CNN
	1    4600 3750
	1    0    0    -1  
$EndComp
Text GLabel 6500 3500 2    50   Input ~ 0
out
Wire Wire Line
	6500 3500 6050 3500
$EndSCHEMATC
