<?xml version="1.0" encoding="UTF-8" standalone="no"?>
<svg
   xmlns:dc="http://purl.org/dc/elements/1.1/"
   xmlns:cc="http://creativecommons.org/ns#"
   xmlns:rdf="http://www.w3.org/1999/02/22-rdf-syntax-ns#"
   xmlns:svg="http://www.w3.org/2000/svg"
   xmlns="http://www.w3.org/2000/svg"
   xmlns:sodipodi="http://sodipodi.sourceforge.net/DTD/sodipodi-0.dtd"
   xmlns:inkscape="http://www.inkscape.org/namespaces/inkscape"
   sodipodi:docname="circuitoRC.svg"
   inkscape:version="1.0 (4035a4fb49, 2020-05-01)"
   inkscape:export-ydpi="96"
   inkscape:export-xdpi="96"
   inkscape:export-filename="/home/fenix/git/electroemprende/materiales/18CircuitoRC/img/circuitoRC.png"
   id="svg8"
   version="1.1"
   viewBox="0 0 508 285.75"
   height="1080"
   width="1920">
  <defs
     id="defs2" />
  <sodipodi:namedview
     inkscape:snap-global="false"
     inkscape:window-maximized="1"
     inkscape:window-y="28"
     inkscape:window-x="0"
     inkscape:window-height="712"
     inkscape:window-width="1366"
     inkscape:snap-bbox-midpoints="true"
     inkscape:snap-midpoints="true"
     inkscape:snap-center="false"
     inkscape:snap-object-midpoints="false"
     inkscape:snap-intersection-paths="true"
     inkscape:snap-bbox="true"
     inkscape:guide-bbox="true"
     showguides="true"
     inkscape:pagecheckerboard="true"
     units="px"
     showgrid="false"
     inkscape:document-rotation="0"
     inkscape:current-layer="layer1"
     inkscape:document-units="mm"
     inkscape:cy="540"
     inkscape:cx="463.44375"
     inkscape:zoom="0.4787037"
     inkscape:pageshadow="2"
     inkscape:pageopacity="0.0"
     borderopacity="1.0"
     bordercolor="#666666"
     pagecolor="#ffffff"
     id="base">
    <sodipodi:guide
       id="guide889"
       orientation="0,-1"
       position="392.53435,388.8707" />
  </sodipodi:namedview>
  <metadata
     id="metadata5">
    <rdf:RDF>
      <cc:Work
         rdf:about="">
        <dc:format>image/svg+xml</dc:format>
        <dc:type
           rdf:resource="http://purl.org/dc/dcmitype/StillImage" />
        <dc:title />
      </cc:Work>
    </rdf:RDF>
  </metadata>
  <g
     id="layer1"
     inkscape:groupmode="layer"
     inkscape:label="Capa 1">
    <path
       sodipodi:nodetypes="cccccccc"
       id="path843"
       d="m -209.51186,99.072723 h 37.39031 l 10.12525,-27.828003 13.91605,54.78858 19.8794,-54.559874 14.54477,54.746904 8.43279,-27.147607 h 38.479551"
       style="fill:none;stroke:#000000;stroke-width:3;stroke-linecap:butt;stroke-linejoin:miter;stroke-miterlimit:4;stroke-dasharray:none;stroke-opacity:1" />
    <g
       transform="translate(110.70755,-91.078151)"
       style="stroke-width:3;stroke-miterlimit:4;stroke-dasharray:none"
       id="g863">
      <path
         id="path845"
         d="m -325.56717,105.47769 h 56.4465"
         style="fill:none;stroke:#000000;stroke-width:3;stroke-linecap:butt;stroke-linejoin:miter;stroke-miterlimit:4;stroke-dasharray:none;stroke-opacity:1" />
      <path
         id="path847"
         d="M -269.12067,105.47769 V 78.11328"
         style="fill:none;stroke:#000000;stroke-width:3;stroke-linecap:butt;stroke-linejoin:miter;stroke-miterlimit:4;stroke-dasharray:none;stroke-opacity:1" />
      <path
         id="path849"
         d="M -269.12067,132.8421 V 105.47769"
         style="fill:none;stroke:#000000;stroke-width:3;stroke-linecap:butt;stroke-linejoin:miter;stroke-miterlimit:4;stroke-dasharray:none;stroke-opacity:1" />
      <path
         id="path851"
         d="m -183.26323,105.47769 h -56.4465"
         style="fill:none;stroke:#000000;stroke-width:3;stroke-linecap:butt;stroke-linejoin:miter;stroke-miterlimit:4;stroke-dasharray:none;stroke-opacity:1" />
      <path
         id="path853"
         d="M -239.70973,105.47769 V 78.11328"
         style="fill:none;stroke:#000000;stroke-width:3;stroke-linecap:butt;stroke-linejoin:miter;stroke-miterlimit:4;stroke-dasharray:none;stroke-opacity:1" />
      <path
         id="path855"
         d="M -239.70973,132.8421 V 105.47769"
         style="fill:none;stroke:#000000;stroke-width:3;stroke-linecap:butt;stroke-linejoin:miter;stroke-miterlimit:4;stroke-dasharray:none;stroke-opacity:1" />
    </g>
    <path
       sodipodi:nodetypes="cccccccc"
       id="path865"
       d="m 143.96019,86.871258 h 27.26152 l 7.38239,-20.289586 10.14628,39.946728 14.49421,-39.779974 10.60468,39.916334 6.14841,-19.793502 h 28.0557"
       style="fill:none;stroke:#000000;stroke-width:3;stroke-linecap:butt;stroke-linejoin:miter;stroke-miterlimit:4;stroke-dasharray:none;stroke-opacity:1" />
    <g
       transform="matrix(0,0.72910661,-0.72910661,0,374.48246,324.24444)"
       style="stroke-width:4.11462;stroke-miterlimit:4;stroke-dasharray:none"
       id="g879">
      <path
         id="path867"
         d="m -325.56717,105.47769 h 56.4465"
         style="fill:none;stroke:#000000;stroke-width:4.11462;stroke-linecap:butt;stroke-linejoin:miter;stroke-miterlimit:4;stroke-dasharray:none;stroke-opacity:1" />
      <path
         id="path869"
         d="M -269.12067,105.47769 V 78.11328"
         style="fill:none;stroke:#000000;stroke-width:4.11462;stroke-linecap:butt;stroke-linejoin:miter;stroke-miterlimit:4;stroke-dasharray:none;stroke-opacity:1" />
      <path
         id="path871"
         d="M -269.12067,132.8421 V 105.47769"
         style="fill:none;stroke:#000000;stroke-width:4.11462;stroke-linecap:butt;stroke-linejoin:miter;stroke-miterlimit:4;stroke-dasharray:none;stroke-opacity:1" />
      <path
         id="path873"
         d="m -183.26323,105.47769 h -56.4465"
         style="fill:none;stroke:#000000;stroke-width:4.11462;stroke-linecap:butt;stroke-linejoin:miter;stroke-miterlimit:4;stroke-dasharray:none;stroke-opacity:1" />
      <path
         id="path875"
         d="M -239.70973,105.47769 V 78.11328"
         style="fill:none;stroke:#000000;stroke-width:4.11462;stroke-linecap:butt;stroke-linejoin:miter;stroke-miterlimit:4;stroke-dasharray:none;stroke-opacity:1" />
      <path
         id="path877"
         d="M -239.70973,132.8421 V 105.47769"
         style="fill:none;stroke:#000000;stroke-width:4.11462;stroke-linecap:butt;stroke-linejoin:miter;stroke-miterlimit:4;stroke-dasharray:none;stroke-opacity:1" />
    </g>
    <text
       id="text883"
       y="51.896873"
       x="180.77458"
       style="font-size:36px;line-height:1.25;font-family:serif;-inkscape-font-specification:serif;stroke-width:0.264583"
       xml:space="preserve"><tspan
         style="font-style:normal;font-variant:normal;font-weight:normal;font-stretch:normal;font-size:36px;font-family:Sampige;-inkscape-font-specification:Sampige;stroke-width:0.264583"
         y="51.896873"
         x="180.77458"
         id="tspan881"
         sodipodi:role="line">R</tspan></text>
    <text
       id="text887"
       y="149.79115"
       x="324.09552"
       style="font-size:36px;line-height:1.25;font-family:serif;-inkscape-font-specification:serif;stroke-width:0.264583"
       xml:space="preserve"><tspan
         style="font-style:normal;font-variant:normal;font-weight:normal;font-stretch:normal;font-size:36px;font-family:Sampige;-inkscape-font-specification:Sampige;stroke-width:0.264583"
         y="149.79115"
         x="324.09552"
         id="tspan885"
         sodipodi:role="line">C</tspan></text>
    <path
       id="path891"
       d="m 248.05338,86.871258 h 49.5246"
       style="fill:none;stroke:#000000;stroke-width:3;stroke-linecap:butt;stroke-linejoin:miter;stroke-miterlimit:4;stroke-dasharray:none;stroke-opacity:1" />
    <circle
       r="6"
       cy="86.871262"
       cx="297.578"
       id="path893"
       style="fill:#000000;fill-rule:evenodd;stroke:#000000;stroke-width:3;stroke-miterlimit:4;stroke-dasharray:none;paint-order:fill markers stroke" />
    <circle
       r="6"
       cy="198.81371"
       cx="-162.90335"
       id="circle895"
       style="fill:#000000;fill-rule:evenodd;stroke:#000000;stroke-width:3;stroke-miterlimit:4;stroke-dasharray:none;paint-order:fill markers stroke" />
    <circle
       r="6"
       cy="201.48564"
       cx="297.578"
       id="circle897"
       style="fill:#000000;fill-rule:evenodd;stroke:#000000;stroke-width:3;stroke-miterlimit:4;stroke-dasharray:none;paint-order:fill markers stroke" />
    <path
       id="path899"
       d="m 297.57798,86.871258 h 110.067"
       style="fill:none;stroke:#000000;stroke-width:3;stroke-linecap:butt;stroke-linejoin:miter;stroke-miterlimit:4;stroke-dasharray:none;stroke-opacity:1" />
    <text
       id="text903"
       y="268.24197"
       x="-172.64258"
       style="font-size:36px;line-height:1.25;font-family:serif;-inkscape-font-specification:serif;stroke-width:0.264583"
       xml:space="preserve"><tspan
         style="font-style:normal;font-variant:normal;font-weight:normal;font-stretch:normal;font-size:36px;font-family:Sampige;-inkscape-font-specification:Sampige;stroke-width:0.264583"
         y="268.24197"
         x="-172.64258"
         id="tspan901"
         sodipodi:role="line">R</tspan></text>
    <text
       id="text907"
       y="323.91016"
       x="-174.13548"
       style="font-size:36px;line-height:1.25;font-family:serif;-inkscape-font-specification:serif;stroke-width:0.264583"
       xml:space="preserve"><tspan
         style="font-style:normal;font-variant:normal;font-weight:normal;font-stretch:normal;font-size:36px;font-family:Sampige;-inkscape-font-specification:Sampige;stroke-width:0.264583"
         y="323.91016"
         x="-174.13548"
         id="tspan905"
         sodipodi:role="line">C</tspan></text>
    <text
       id="text911"
       y="381.35645"
       x="-175.85428"
       style="font-size:36px;line-height:1.25;font-family:serif;-inkscape-font-specification:serif;stroke-width:0.264583"
       xml:space="preserve"><tspan
         style="font-style:normal;font-variant:normal;font-weight:normal;font-stretch:normal;font-size:36px;font-family:Sampige;-inkscape-font-specification:Sampige;stroke-width:0.264583"
         y="381.35645"
         x="-175.85428"
         id="tspan909"
         sodipodi:role="line">v_i</tspan></text>
    <text
       id="text915"
       y="152.91647"
       x="33.69059"
       style="font-size:36px;line-height:1.25;font-family:serif;-inkscape-font-specification:serif;stroke-width:0.264583"
       xml:space="preserve"><tspan
         style="font-style:normal;font-variant:normal;font-weight:normal;font-stretch:normal;font-size:36px;font-family:Sampige;-inkscape-font-specification:Sampige;stroke-width:0.264583"
         y="152.91647"
         x="33.69059"
         id="tspan913"
         sodipodi:role="line">v</tspan></text>
    <text
       id="text919"
       y="151.64545"
       x="416.53323"
       style="font-size:36px;line-height:1.25;font-family:serif;-inkscape-font-specification:serif;stroke-width:0.264583"
       xml:space="preserve"><tspan
         style="font-style:normal;font-variant:normal;font-weight:normal;font-stretch:normal;font-size:36px;font-family:Sampige;-inkscape-font-specification:Sampige;stroke-width:0.264583"
         y="151.64545"
         x="416.53323"
         id="tspan917"
         sodipodi:role="line">v_c</tspan></text>
    <circle
       r="6"
       cy="87.073975"
       cx="406.0351"
       id="circle921"
       style="fill:#000000;fill-rule:evenodd;stroke:#000000;stroke-width:3;stroke-miterlimit:4;stroke-dasharray:none;paint-order:fill markers stroke" />
    <g
       transform="translate(321.90477,279.56469)"
       style="stroke-width:3;stroke-miterlimit:4;stroke-dasharray:none"
       id="g935">
      <g
         transform="rotate(90,-297.34391,105.47768)"
         id="g940">
        <path
           id="path966"
           d="m -436.80649,-167.49109 h -56.4465"
           style="fill:none;stroke:#000000;stroke-width:3;stroke-linecap:butt;stroke-linejoin:miter;stroke-miterlimit:4;stroke-dasharray:none;stroke-opacity:1" />
        <path
           id="path968"
           d="m -436.80649,-194.8555 v 27.36441"
           style="fill:none;stroke:#000000;stroke-width:3;stroke-linecap:butt;stroke-linejoin:miter;stroke-miterlimit:4;stroke-dasharray:none;stroke-opacity:1" />
        <path
           id="path970"
           d="m -436.80647,-167.49112 v 27.36442"
           style="fill:none;stroke:#000000;stroke-width:3;stroke-linecap:butt;stroke-linejoin:miter;stroke-miterlimit:4;stroke-dasharray:none;stroke-opacity:1" />
        <path
           id="path972"
           d="m -416.90452,-159.71879 v -15.85097"
           style="fill:none;stroke:#000000;stroke-width:3;stroke-linecap:butt;stroke-linejoin:miter;stroke-miterlimit:4;stroke-dasharray:none;stroke-opacity:1" />
        <path
           id="path974"
           d="m -426.25453,-151.04294 v -33.20267"
           style="fill:none;stroke:#000000;stroke-width:3;stroke-linecap:butt;stroke-linejoin:miter;stroke-miterlimit:4;stroke-dasharray:none;stroke-opacity:1" />
      </g>
    </g>
    <g
       transform="translate(471.41873,-82.751076)"
       id="g989">
      <path
         transform="rotate(90,-280.06346,390.52358)"
         id="path923"
         d="m -213.38475,191.90465 h -23.98624"
         style="fill:none;stroke:#000000;stroke-width:3;stroke-linecap:butt;stroke-linejoin:miter;stroke-miterlimit:4;stroke-dasharray:none;stroke-opacity:1" />
      <path
         transform="rotate(90,-280.06346,390.52358)"
         id="path925"
         d="m -213.38475,164.54024 v 27.36441"
         style="fill:none;stroke:#000000;stroke-width:3;stroke-linecap:butt;stroke-linejoin:miter;stroke-miterlimit:4;stroke-dasharray:none;stroke-opacity:1" />
      <path
         transform="rotate(90,-280.06346,390.52358)"
         id="path927"
         d="m -213.38473,191.90462 v 27.36442"
         style="fill:none;stroke:#000000;stroke-width:3;stroke-linecap:butt;stroke-linejoin:miter;stroke-miterlimit:4;stroke-dasharray:none;stroke-opacity:1" />
      <path
         transform="rotate(90,-280.06346,390.52358)"
         id="path958"
         d="M -193.48278,199.67695 V 183.82598"
         style="fill:none;stroke:#000000;stroke-width:3;stroke-linecap:butt;stroke-linejoin:miter;stroke-miterlimit:4;stroke-dasharray:none;stroke-opacity:1" />
      <path
         transform="rotate(90,-280.06346,390.52358)"
         id="path960"
         d="M -202.83279,208.3528 V 175.15013"
         style="fill:none;stroke:#000000;stroke-width:3;stroke-linecap:butt;stroke-linejoin:miter;stroke-miterlimit:4;stroke-dasharray:none;stroke-opacity:1" />
      <circle
         r="6"
         cy="426.95847"
         cx="-81.930367"
         id="circle976"
         style="fill:#000000;fill-rule:evenodd;stroke:#000000;stroke-width:3;stroke-miterlimit:4;stroke-dasharray:none;paint-order:fill markers stroke" />
    </g>
    <g
       transform="translate(377.13864,-92.260053)"
       id="g1003">
      <path
         transform="rotate(90,-280.06346,390.52358)"
         id="path991"
         d="m -213.38475,191.90465 h -23.98624"
         style="fill:none;stroke:#000000;stroke-width:3;stroke-linecap:butt;stroke-linejoin:miter;stroke-miterlimit:4;stroke-dasharray:none;stroke-opacity:1" />
      <path
         transform="rotate(90,-280.06346,390.52358)"
         id="path993"
         d="m -213.38475,164.54024 v 27.36441"
         style="fill:none;stroke:#000000;stroke-width:3;stroke-linecap:butt;stroke-linejoin:miter;stroke-miterlimit:4;stroke-dasharray:none;stroke-opacity:1" />
      <path
         transform="rotate(90,-280.06346,390.52358)"
         id="path995"
         d="m -213.38473,191.90462 v 27.36442"
         style="fill:none;stroke:#000000;stroke-width:3;stroke-linecap:butt;stroke-linejoin:miter;stroke-miterlimit:4;stroke-dasharray:none;stroke-opacity:1" />
      <path
         transform="rotate(90,-280.06346,390.52358)"
         id="path997"
         d="M -193.48278,199.67695 V 183.82598"
         style="fill:none;stroke:#000000;stroke-width:3;stroke-linecap:butt;stroke-linejoin:miter;stroke-miterlimit:4;stroke-dasharray:none;stroke-opacity:1" />
      <path
         transform="rotate(90,-280.06346,390.52358)"
         id="path999"
         d="M -202.83279,208.3528 V 175.15013"
         style="fill:none;stroke:#000000;stroke-width:3;stroke-linecap:butt;stroke-linejoin:miter;stroke-miterlimit:4;stroke-dasharray:none;stroke-opacity:1" />
      <circle
         r="6"
         cy="426.95847"
         cx="-81.930367"
         id="circle1001"
         style="fill:#000000;fill-rule:evenodd;stroke:#000000;stroke-width:3;stroke-miterlimit:4;stroke-dasharray:none;paint-order:fill markers stroke" />
    </g>
    <g
       transform="translate(-63.16519,11.119159)"
       id="g1017">
      <path
         transform="rotate(90,-280.06346,390.52358)"
         id="path1005"
         d="m -213.38475,191.90465 h -23.98624"
         style="fill:none;stroke:#000000;stroke-width:3;stroke-linecap:butt;stroke-linejoin:miter;stroke-miterlimit:4;stroke-dasharray:none;stroke-opacity:1" />
      <path
         transform="rotate(90,-280.06346,390.52358)"
         id="path1007"
         d="m -213.38475,164.54024 v 27.36441"
         style="fill:none;stroke:#000000;stroke-width:3;stroke-linecap:butt;stroke-linejoin:miter;stroke-miterlimit:4;stroke-dasharray:none;stroke-opacity:1" />
      <path
         transform="rotate(90,-280.06346,390.52358)"
         id="path1009"
         d="m -213.38473,191.90462 v 27.36442"
         style="fill:none;stroke:#000000;stroke-width:3;stroke-linecap:butt;stroke-linejoin:miter;stroke-miterlimit:4;stroke-dasharray:none;stroke-opacity:1" />
      <path
         transform="rotate(90,-280.06346,390.52358)"
         id="path1011"
         d="M -193.48278,199.67695 V 183.82598"
         style="fill:none;stroke:#000000;stroke-width:3;stroke-linecap:butt;stroke-linejoin:miter;stroke-miterlimit:4;stroke-dasharray:none;stroke-opacity:1" />
      <path
         transform="rotate(90,-280.06346,390.52358)"
         id="path1013"
         d="M -202.83279,208.3528 V 175.15013"
         style="fill:none;stroke:#000000;stroke-width:3;stroke-linecap:butt;stroke-linejoin:miter;stroke-miterlimit:4;stroke-dasharray:none;stroke-opacity:1" />
    </g>
    <path
       style="fill:none;stroke:#000000;stroke-width:3;stroke-linecap:butt;stroke-linejoin:miter;stroke-miterlimit:4;stroke-dasharray:none;stroke-opacity:1"
       d="m 143.03469,399.36723 h 110.067"
       id="path71" />
    <circle
       r="6"
       style="fill:#000000;fill-rule:evenodd;stroke:#000000;stroke-width:3;stroke-miterlimit:4;stroke-dasharray:none;paint-order:fill markers stroke"
       id="circle73"
       cx="405.14029"
       cy="201.95547" />
    <ellipse
       ry="31.24361"
       rx="31.616459"
       cy="145.01848"
       cx="119.3465"
       id="path75"
       style="fill:none;fill-rule:evenodd;stroke:#000000;stroke-width:1.91162;stroke-miterlimit:4;stroke-dasharray:none" />
    <text
       xml:space="preserve"
       style="font-size:36px;line-height:0.25;font-family:serif;-inkscape-font-specification:serif;stroke-width:0.264583"
       x="109.8171"
       y="154.73114"
       id="text902"><tspan
         id="tspan906"
         sodipodi:role="line"
         x="109.8171"
         y="154.73114"
         style="font-style:normal;font-variant:normal;font-weight:normal;font-stretch:normal;font-size:36px;font-family:Sampige;-inkscape-font-specification:Sampige;stroke-width:0.264583">------_</tspan></text>
    <path
       sodipodi:nodetypes="cc"
       style="fill:none;stroke:#000000;stroke-width:3;stroke-linecap:butt;stroke-linejoin:miter;stroke-miterlimit:4;stroke-dasharray:none;stroke-opacity:1"
       d="M 119.31055,86.871258 H 148.353"
       id="path924" />
    <path
       id="path926"
       d="M 119.31055,86.871258 V 113.87181"
       style="fill:none;stroke:#000000;stroke-width:2.89262;stroke-linecap:butt;stroke-linejoin:miter;stroke-miterlimit:4;stroke-dasharray:none;stroke-opacity:1"
       sodipodi:nodetypes="cc" />
    <path
       id="path928"
       d="M 119.31055,203.3139 H 404.18534"
       style="fill:none;stroke:#000000;stroke-width:3;stroke-linecap:butt;stroke-linejoin:miter;stroke-miterlimit:4;stroke-dasharray:none;stroke-opacity:1"
       sodipodi:nodetypes="cc" />
    <path
       sodipodi:nodetypes="cc"
       style="fill:none;stroke:#000000;stroke-width:3;stroke-linecap:butt;stroke-linejoin:miter;stroke-miterlimit:4;stroke-dasharray:none;stroke-opacity:1"
       d="M 119.37382,204.80726 V 175.76482"
       id="path930" />
    <text
       id="text940"
       y="136.25813"
       x="107.05521"
       style="font-size:36px;line-height:0.25;font-family:serif;-inkscape-font-specification:serif;stroke-width:0.264583"
       xml:space="preserve"><tspan
         style="font-style:normal;font-variant:normal;font-weight:normal;font-stretch:normal;font-size:36px;font-family:Sampige;-inkscape-font-specification:Sampige;stroke-width:0.264583"
         y="136.25813"
         x="107.05521"
         sodipodi:role="line"
         id="tspan938">------+</tspan></text>
  </g>
</svg>
